…
```r
newD<-d %>% group_by(interval) %>% mutate(newSteps=ifelse(is.na(steps),mean(steps,na.rm = TRUE),steps) )
newD
```

```
## # A tibble: 17,568 x 4
## # Groups: interval [288]
##    steps date       interval newSteps
##    <int> <date>        <int>    <dbl>
##  1    NA 2012-10-01        0   1.72  
##  2    NA 2012-10-01        5   0.340 
##  3    NA 2012-10-01       10   0.132 
##  4    NA 2012-10-01       15   0.151 
##  5    NA 2012-10-01       20   0.0755
##  6    NA 2012-10-01       25   2.09  
##  7    NA 2012-10-01       30   0.528 
##  8    NA 2012-10-01       35   0.868 
##  9    NA 2012-10-01       40   0     
## 10    NA 2012-10-01       45   1.47  
## # ... with 17,558 more rows
```
…
```r
newD<-d %>% group_by(interval) %>% mutate(newSteps=ifelse(is.na(steps),mean(steps,na.rm = TRUE),steps) )
newD
```

```
## # A tibble: 17,568 x 4
## # Groups: interval [288]
##    steps date       interval newSteps
##    <int> <date>        <int>    <dbl>
##  1    NA 2012-10-01        0   1.72  
##  2    NA 2012-10-01        5   0.340 
##  3    NA 2012-10-01       10   0.132 
##  4    NA 2012-10-01       15   0.151 
##  5    NA 2012-10-01       20   0.0755
##  6    NA 2012-10-01       25   2.09  
##  7    NA 2012-10-01       30   0.528 
##  8    NA 2012-10-01       35   0.868 
##  9    NA 2012-10-01       40   0     
## 10    NA 2012-10-01       45   1.47  
## # ... with 17,558 more rows
```
…
